[
  {
    "LimitUsageDTOData": null,
    "RFSItemDTOData": null,
    "oVARItemDTO": null,
    "oPLItemDTO": null,
    "PLByRFSDTOData": null,
    "oInventoryTurnoverItemDTO": {
      "oDetailsDTOData": null,
      "oDays30DTO": {
        "dNumerator": 72525000,
        "dDenominator": 3141222875.16,
        "dRatio": 0.023088142065152223
      },
      "oDays60DTO": {
        "dNumerator": 1353106453.4599998,
        "dDenominator": 3494184415.0000005,
        "dRatio": 0.3872452889582245
      },
      "oDays90DTO": {
        "dNumerator": 3804186799.9199996,
        "dDenominator": 2825267389.520001,
        "dRatio": 1.346487349845606
      },
      "sCalendarDate": "2015-11-02",
      "sDivision": "Fixed Income",
      "sVolckerDesk": "Agencies/CP",
      "sTradebook": "N/A",
      "sCusip": null,
      "sSecurityDescription": null,
      "sProductHierarchy1": null,
      "sProductHierarchy2": "N/A",
      "sProductHierarchy3": null
    },
    "bIsReviewClicked": false,
    "ReviewID": 13869,
    "sPanel": "5",
    "VolckerDeskID": 1,
    "sVolckerDeskName": "Agencies/CP",
    "dtReview": "11/2/2015",
    "ReviewStatusID": 2,
    "sReviewerLogin": "",
    "dtTimeStamp": "11/17/2015",
    "sDescription": "Pending",
    "sComment": "",
    "ReviewStatus": "",
    "BreachStatus": ""
  }
]