[
  {
    "LimitUsageDTOData": null,
    "RFSItemDTOData": null,
    "oVARItemDTO": null,
    "oPLItemDTO": null,
    "PLByRFSDTOData": [],
    "bIsReviewClicked": false,
    "ReviewID": 10876,
    "sPanel": "8",
    "VolckerDeskID": 1,
    "sVolckerDeskName": "Agencies/CP",
    "dtReview": "7/6/2015",
    "ReviewStatusID": 2,
    "sReviewerLogin": "",
    "dtTimeStamp": "10/27/2015",
    "sDescription": "Pending",
    "sComment": "",
    "ReviewStatus": "",
    "BreachStatus": ""
  },
  {
    "LimitUsageDTOData": null,
    "RFSItemDTOData": null,
    "oVARItemDTO": null,
    "oPLItemDTO": null,
    "PLByRFSDTOData": [
      {
        "bIsOverridden": true,
        "sRiskFactorSensitivity": "Interest Rates",
        "dPLRiskFactorMove": -16542.9436,
        "dRiskFactorSize": -5426.380499999996,
        "dPercentageOfPL": 3.048614744211176,
        "iOrdinal": 4,
        "sCalendarDate": "2015-07-07",
        "sDivision": "Fixed Income",
        "sVolckerDesk": "Agencies/CP",
        "sTradebook": null,
        "sCusip": null,
        "sSecurityDescription": null,
        "sProductHierarchy1": null,
        "sProductHierarchy2": null,
        "sProductHierarchy3": null
      },
      {
        "sRiskFactorSensitivity": "IR Volatility",
        "dPLRiskFactorMove": -14350.7492,
        "dRiskFactorSize": -5426.380499999996,
        "dPercentageOfPL": 2.644626413499756,
        "iOrdinal": 5,
        "sCalendarDate": "2015-07-07",
        "sDivision": "Fixed Income",
        "sVolckerDesk": "Agencies/CP",
        "sTradebook": null,
        "sCusip": null,
        "sSecurityDescription": null,
        "sProductHierarchy1": null,
        "sProductHierarchy2": null,
        "sProductHierarchy3": null
      },
      {
        "sRiskFactorSensitivity": "Spreads",
        "dPLRiskFactorMove": 25467.3123,
        "dRiskFactorSize": -5426.380499999996,
        "dPercentageOfPL": -4.693241157710931,
        "iOrdinal": 6,
        "sCalendarDate": "2015-07-07",
        "sDivision": "Fixed Income",
        "sVolckerDesk": "Agencies/CP",
        "sTradebook": null,
        "sCusip": null,
        "sSecurityDescription": null,
        "sProductHierarchy1": null,
        "sProductHierarchy2": null,
        "sProductHierarchy3": null
      }
    ],
    "bIsReviewClicked": false,
    "ReviewID": 10880,
    "sPanel": "8",
    "VolckerDeskID": 1,
    "sVolckerDeskName": "Agencies/CP",
    "dtReview": "7/7/2015",
    "ReviewStatusID": 2,
    "sReviewerLogin": "",
    "dtTimeStamp": "10/27/2015",
    "sDescription": "Pending",
    "sComment": "",
    "ReviewStatus": "",
    "BreachStatus": ""
  },
  {
    "LimitUsageDTOData": null,
    "RFSItemDTOData": null,
    "oVARItemDTO": null,
    "oPLItemDTO": null,
    "PLByRFSDTOData": [
      {
        "bIsOverridden": true,
        "sRiskFactorSensitivity": "Interest Rates",
        "dPLRiskFactorMove": -64005.4325,
        "dRiskFactorSize": -99176.7653,
        "dPercentageOfPL": 0.6453672118302088,
        "iOrdinal": 4,
        "sCalendarDate": "2015-07-08",
        "sDivision": "Fixed Income",
        "sVolckerDesk": "Agencies/CP",
        "sTradebook": null,
        "sCusip": null,
        "sSecurityDescription": null,
        "sProductHierarchy1": null,
        "sProductHierarchy2": null,
        "sProductHierarchy3": null
      },
      {
        "sRiskFactorSensitivity": "IR Volatility",
        "dPLRiskFactorMove": 28129.6555,
        "dRiskFactorSize": -99176.7653,
        "dPercentageOfPL": -0.2836315079939394,
        "iOrdinal": 5,
        "sCalendarDate": "2015-07-08",
        "sDivision": "Fixed Income",
        "sVolckerDesk": "Agencies/CP",
        "sTradebook": null,
        "sCusip": null,
        "sSecurityDescription": null,
        "sProductHierarchy1": null,
        "sProductHierarchy2": null,
        "sProductHierarchy3": null
      },
      {
        "sRiskFactorSensitivity": "Spreads",
        "dPLRiskFactorMove": -63300.9883,
        "dRiskFactorSize": -99176.7653,
        "dPercentageOfPL": 0.6382642961637306,
        "iOrdinal": 6,
        "sCalendarDate": "2015-07-08",
        "sDivision": "Fixed Income",
        "sVolckerDesk": "Agencies/CP",
        "sTradebook": null,
        "sCusip": null,
        "sSecurityDescription": null,
        "sProductHierarchy1": null,
       "sProductHierarchy2": null,
        "sProductHierarchy3": null
      }
    ],
    "bIsReviewClicked": false,
    "ReviewID": 10826,
    "sPanel": "8",
    "VolckerDeskID": 1,
    "sVolckerDeskName": "Agencies/CP",
    "dtReview": "7/8/2015",
    "ReviewStatusID": 2,
    "sReviewerLogin": "",
    "dtTimeStamp": "10/27/2015",
    "sDescription": "Pending",
    "sComment": "",
    "ReviewStatus": "",
    "BreachStatus": ""
  }
]